[gd_scene load_steps=2 format=2]

[ext_resource path="res://anti-cheat/scripts/server.gd" type="Script" id=1]

[node name="Multiplayer" type="Node"]
script = ExtResource( 1 )

[node name="info" type="Label" parent="."]
anchor_right = 1.0
anchor_bottom = 1.0
text = "The server is running. Edit config.json to change the settings."
align = 1
valign = 1
__meta__ = {
"_edit_use_anchors_": false
}

[node name="Timer" type="Timer" parent="."]

[connection signal="timeout" from="Timer" to="." method="broadcast"]
